22.6941 | -75.354 | 16.2611
1.44172 | -25.7378 | -107.43
54.1395 | -28.3047 | -122.101
-5.92187 | 2.15583 | -9.75331
-29.6393 | 59.4361 | 11.2532
-55.1652 | -6.46791 | -99.6861
-5.41793 | 7.30654 | 4.23792
3.23786e-07 | -1.77084e-07 | -32.6499
145.805 | 81.0065 | -128.253
44.8354 | -64.3522 | -8.80256
17.8389 | -15.3381 | -33.3848
137.42 | -39.9616 | -91.8396
-21.8556 | -7.22515 | -91.8692
0.256952 | 1.6032 | 17.2654
-5.05194 | 6.98425 | 5.59287
5.13245e-07 | -2.80703e-07 | -32.6499
24.2472 | 65.2487 | 71.5507
-60.2622 | 38.3798 | -32.8234
-79.3806 | 18.2529 | -62.8391
-41.8964 | -17.9563 | -106.322
1.33355 | 2.22284 | 32.2704
-6.74312 | 10.348 | 11.2224
5.08679e-07 | -2.78206e-07 | -32.6499
-84.0918 | -76.4514 | 172.568
-47.7697 | 0.253041 | -112.045
-15.6916 | 85.6893 | 83.9565
28.3854 | 11.348 | -85.2825
62.1888 | -19.992 | -38.6312
