^C:\USERS\IVAN\DESKTOP\UNI\CS562\CS562\DEPENDENCIES\INCLUDE\GL\GL3W.C
C:\USERS\IVAN\DESKTOP\UNI\CS562\CS562\CS562\DEBUG\VC141.PDB
C:\USERS\IVAN\DESKTOP\UNI\CS562\CS562\CS562\DEBUG\VC141.IDB
C:\USERS\IVAN\DESKTOP\UNI\CS562\CS562\CS562\DEBUG\GL3W.OBJ
^C:\USERS\IVAN\DESKTOP\UNI\CS562\CS562\DEPENDENCIES\INCLUDE\IMGUI\IMGUI.CPP|C:\USERS\IVAN\DESKTOP\UNI\CS562\CS562\DEPENDENCIES\INCLUDE\IMGUI\IMGUI_DEMO.CPP|C:\USERS\IVAN\DESKTOP\UNI\CS562\CS562\DEPENDENCIES\INCLUDE\IMGUI\IMGUI_DRAW.CPP|C:\USERS\IVAN\DESKTOP\UNI\CS562\CS562\DEPENDENCIES\INCLUDE\IMGUI\IMGUI_IMPL_GLFW.CPP|C:\USERS\IVAN\DESKTOP\UNI\CS562\CS562\DEPENDENCIES\INCLUDE\IMGUI\IMGUI_IMPL_OPENGL3.CPP|C:\USERS\IVAN\DESKTOP\UNI\CS562\CS562\DEPENDENCIES\INCLUDE\IMGUI\IMGUI_WIDGETS.CPP
C:\USERS\IVAN\DESKTOP\UNI\CS562\CS562\CS562\DEBUG\VC141.PDB
C:\USERS\IVAN\DESKTOP\UNI\CS562\CS562\CS562\DEBUG\VC141.IDB
C:\USERS\IVAN\DESKTOP\UNI\CS562\CS562\CS562\DEBUG\IMGUI_WIDGETS.OBJ
C:\USERS\IVAN\DESKTOP\UNI\CS562\CS562\CS562\DEBUG\IMGUI_IMPL_OPENGL3.OBJ
C:\USERS\IVAN\DESKTOP\UNI\CS562\CS562\CS562\DEBUG\IMGUI_IMPL_GLFW.OBJ
C:\USERS\IVAN\DESKTOP\UNI\CS562\CS562\CS562\DEBUG\IMGUI_DRAW.OBJ
C:\USERS\IVAN\DESKTOP\UNI\CS562\CS562\CS562\DEBUG\IMGUI_DEMO.OBJ
C:\USERS\IVAN\DESKTOP\UNI\CS562\CS562\CS562\DEBUG\IMGUI.OBJ
^C:\USERS\IVAN\DESKTOP\UNI\CS562\CS562\DEPENDENCIES\INCLUDE\IMGUI\IMGUI.CPP
C:\USERS\IVAN\DESKTOP\UNI\CS562\CS562\CS562\DEBUG\VC141.PDB
^C:\USERS\IVAN\DESKTOP\UNI\CS562\CS562\DEPENDENCIES\INCLUDE\IMGUI\IMGUI_DEMO.CPP
C:\USERS\IVAN\DESKTOP\UNI\CS562\CS562\CS562\DEBUG\VC141.PDB
^C:\USERS\IVAN\DESKTOP\UNI\CS562\CS562\DEPENDENCIES\INCLUDE\IMGUI\IMGUI_DRAW.CPP
C:\USERS\IVAN\DESKTOP\UNI\CS562\CS562\CS562\DEBUG\VC141.PDB
^C:\USERS\IVAN\DESKTOP\UNI\CS562\CS562\DEPENDENCIES\INCLUDE\IMGUI\IMGUI_IMPL_GLFW.CPP
C:\USERS\IVAN\DESKTOP\UNI\CS562\CS562\CS562\DEBUG\VC141.PDB
^C:\USERS\IVAN\DESKTOP\UNI\CS562\CS562\DEPENDENCIES\INCLUDE\IMGUI\IMGUI_IMPL_OPENGL3.CPP
C:\USERS\IVAN\DESKTOP\UNI\CS562\CS562\CS562\DEBUG\VC141.PDB
^C:\USERS\IVAN\DESKTOP\UNI\CS562\CS562\DEPENDENCIES\INCLUDE\IMGUI\IMGUI_WIDGETS.CPP
C:\USERS\IVAN\DESKTOP\UNI\CS562\CS562\CS562\DEBUG\VC141.PDB
^C:\USERS\IVAN\DESKTOP\UNI\CS562\CS562\CS562\SRC\MAIN.CPP
C:\USERS\IVAN\DESKTOP\UNI\CS562\CS562\CS562\DEBUG\VC141.PDB
C:\USERS\IVAN\DESKTOP\UNI\CS562\CS562\CS562\DEBUG\VC141.IDB
C:\USERS\IVAN\DESKTOP\UNI\CS562\CS562\CS562\DEBUG\MAIN.OBJ
